{
  "_links": {
    "root": {
      "href": "/"
    },
    "self": {
      "href": "/scan/bdde0b91-a3bc-4d23-a125-9b33a261ef99"
    },
    "help": {
      "href": "https://help.veracode.com/reader/tS9CaFwL4_lbIEWWomsJoA/ovfZGgu96UINQxIuTqRDwg"
    }
  },
  "scan_status": "SUCCESS",
  "message": "Scan successful. Results size: 14611 bytes",
  "modules": [
    "JS files within cwe-73.zip"
  ],
  "modules_count": 1,
  "results": {
    "TestResults": {
      "Issues": {
        "Issue": [
          {
            "Title": "express",
            "IssueId": "1007",
            "GOB": "B",
            "Severity": "3",
            "IssueTypeId": "crypto",
            "IssueType": "Cross-Site Request Forgery (CSRF)",
            "CWEId": "352",
            "DisplayText": "\u003cspan\u003eThis Express application does not appear to use a known library or tool to protect against cross-site request forgery. \u003c/span\u003e \u003cspan\u003eEnsure that all actions and routes that modify data are either protected with anti-CSRF tokens, or are designed in such a way to eliminate CSRF risk.\u003c/span\u003e \u003cspan\u003eReferences: \u003ca href\u003d\"https://cwe.mitre.org/data/definitions/352.html\"\u003eCWE\u003c/a\u003e \u003ca href\u003d\"https://github.com/OWASP/CheatSheetSeries/blob/master/cheatsheets/Cross-Site_Request_Forgery_Prevention_Cheat_Sheet.md\"\u003eOWASP\u003c/a\u003e\u003c/span\u003e",
            "Files": {
              "SourceFile": {
                "File": "cwe-73/test.js",
                "Line": "2",
                "FunctionName": "!main",
                "QualifiedFunctionName": "!main",
                "FunctionPrototype": "void !main()",
                "Scope": "UNKNOWN"
              }
            },
            "FlawMatch": {
              "ProcedureHash": "792316196",
              "PrototypeHash": "211846691",
              "FlawHash": "1867258100",
              "FlawHashCount": "1",
              "FlawHashOrdinal": "1",
              "CauseHash": "2275449179",
              "CauseHashCount": "1",
              "CauseHashOrdinal": "1",
              "CauseHash2": "0",
              "CauseHash2Ordinal": "0"
            },
            "FlawDetailsLink": "https://downloads.veracode.com/securityscan/cwe/v4/java/352.html"
          },
          {
            "Title": "console.log",
            "IssueId": "1005",
            "GOB": "B",
            "Severity": "3",
            "IssueTypeId": "taint",
            "IssueType": "Cleartext Storage of Sensitive Information",
            "CWEId": "312",
            "DisplayText": "\u003cspan\u003eThe console.log() method stores sensitive information in unencrypted form, making the data more susceptible to compromise. Generally an attacker needs local access to the system in order to exploit this type of flaw, but with mobile devices, files and other resources are often synchronized off the device to locations where they may be compromised through other means.\u003c/span\u003e \u003cspan\u003eStore all sensitive information in encrypted form.\u003c/span\u003e \u003cspan\u003eReferences: \u003ca href\u003d\"https://cwe.mitre.org/data/definitions/312.html\"\u003eCWE\u003c/a\u003e\u003c/span\u003e",
            "Files": {
              "SourceFile": {
                "File": "cwe-73/test.js",
                "Line": "12",
                "FunctionName": "!main",
                "QualifiedFunctionName": "!main",
                "FunctionPrototype": "void !main()",
                "Scope": "UNKNOWN"
              }
            },
            "FlawMatch": {
              "ProcedureHash": "792316196",
              "PrototypeHash": "211846691",
              "FlawHash": "3132762339",
              "FlawHashCount": "4",
              "FlawHashOrdinal": "1",
              "CauseHash": "1176028798",
              "CauseHashCount": "1",
              "CauseHashOrdinal": "1",
              "CauseHash2": "1522093433",
              "CauseHash2Ordinal": "3"
            },
            "FlawDetailsLink": "https://downloads.veracode.com/securityscan/cwe/v4/java/312.html"
          },
          {
            "Title": "console.log",
            "IssueId": "1000",
            "GOB": "B",
            "Severity": "3",
            "IssueTypeId": "taint",
            "IssueType": "Cleartext Storage of Sensitive Information",
            "CWEId": "312",
            "DisplayText": "\u003cspan\u003eThe console.log() method stores sensitive information in unencrypted form, making the data more susceptible to compromise. Generally an attacker needs local access to the system in order to exploit this type of flaw, but with mobile devices, files and other resources are often synchronized off the device to locations where they may be compromised through other means.\u003c/span\u003e \u003cspan\u003eStore all sensitive information in encrypted form.\u003c/span\u003e \u003cspan\u003eReferences: \u003ca href\u003d\"https://cwe.mitre.org/data/definitions/312.html\"\u003eCWE\u003c/a\u003e\u003c/span\u003e",
            "Files": {
              "SourceFile": {
                "File": "cwe-73/test.js",
                "Line": "14",
                "FunctionName": "!main",
                "QualifiedFunctionName": "!main",
                "FunctionPrototype": "void !main()",
                "Scope": "UNKNOWN"
              }
            },
            "FlawMatch": {
              "ProcedureHash": "792316196",
              "PrototypeHash": "211846691",
              "FlawHash": "880666852",
              "FlawHashCount": "1",
              "FlawHashOrdinal": "1",
              "CauseHash": "1076078180",
              "CauseHashCount": "1",
              "CauseHashOrdinal": "1",
              "CauseHash2": "3333277282",
              "CauseHash2Ordinal": "1"
            },
            "FlawDetailsLink": "https://downloads.veracode.com/securityscan/cwe/v4/java/312.html"
          },
          {
            "Title": "console.log",
            "IssueId": "1004",
            "GOB": "B",
            "Severity": "3",
            "IssueTypeId": "taint",
            "IssueType": "Cleartext Storage of Sensitive Information",
            "CWEId": "312",
            "DisplayText": "\u003cspan\u003eThe console.log() method stores sensitive information in unencrypted form, making the data more susceptible to compromise. Generally an attacker needs local access to the system in order to exploit this type of flaw, but with mobile devices, files and other resources are often synchronized off the device to locations where they may be compromised through other means.\u003c/span\u003e \u003cspan\u003eStore all sensitive information in encrypted form.\u003c/span\u003e \u003cspan\u003eReferences: \u003ca href\u003d\"https://cwe.mitre.org/data/definitions/312.html\"\u003eCWE\u003c/a\u003e\u003c/span\u003e",
            "Files": {
              "SourceFile": {
                "File": "cwe-73/test.js",
                "Line": "15",
                "FunctionName": "!main",
                "QualifiedFunctionName": "!main",
                "FunctionPrototype": "void !main()",
                "Scope": "UNKNOWN"
              }
            },
            "FlawMatch": {
              "ProcedureHash": "792316196",
              "PrototypeHash": "211846691",
              "FlawHash": "3793064015",
              "FlawHashCount": "1",
              "FlawHashOrdinal": "1",
              "CauseHash": "602597549",
              "CauseHashCount": "1",
              "CauseHashOrdinal": "1",
              "CauseHash2": "949985339",
              "CauseHash2Ordinal": "1"
            },
            "FlawDetailsLink": "https://downloads.veracode.com/securityscan/cwe/v4/java/312.html"
          },
          {
            "Title": "console.log",
            "IssueId": "1001",
            "GOB": "B",
            "Severity": "3",
            "IssueTypeId": "taint",
            "IssueType": "Improper Output Neutralization for Logs",
            "CWEId": "117",
            "DisplayText": "\u003cspan\u003eThis call to console.log() could result in a log forging attack.  Writing untrusted data into a log file allows an attacker to forge log entries or inject malicious content into log files.  Corrupted log files can be used to cover an attacker\u0027s tracks or as a delivery mechanism for an attack on a log viewing or processing utility.  For example, if a web administrator uses a browser-based utility to review logs, a cross-site scripting attack might be possible. \u003c/span\u003e \u003cspan\u003eAvoid directly embedding user input in log files when possible.  Sanitize untrusted data used to construct log entries by using a safe logging mechanism such as the OWASP ESAPI Logger, which will automatically remove unexpected carriage returns and line feeds and can be configured to use HTML entity encoding for non-alphanumeric data.  Alternatively, some of the XSS escaping functions from the OWASP Java Encoder project will also sanitize CRLF sequences.  Only create a custom blocklist when absolutely necessary.  Always validate untrusted input to ensure that it conforms to the expected format, using centralized data validation routines when possible.\u003c/span\u003e \u003cspan\u003eReferences: \u003ca href\u003d\"https://cwe.mitre.org/data/definitions/117.html\"\u003eCWE\u003c/a\u003e \u003ca href\u003d\"https://www.owasp.org/index.php/Log_injection\"\u003eOWASP\u003c/a\u003e \u003ca href\u003d\"https://webappsec.pbworks.com/Improper-Output-Handling\"\u003eWASC\u003c/a\u003e \u003ca href\u003d\"https://help.veracode.com/reader/4EKhlLSMHm5jC8P8j3XccQ/IiF_rOE79ANbwnZwreSPGA\"\u003eSupported Cleansers\u003c/a\u003e\u003c/span\u003e",
            "Files": {
              "SourceFile": {
                "File": "cwe-73/test.js",
                "Line": "42",
                "FunctionName": "!func",
                "QualifiedFunctionName": "!main.!lambda4.!func",
                "FunctionPrototype": "!js_object !func(!js_object, !js_object, !js_object, ...)",
                "Scope": "^::!main::!lambda4"
              }
            },
            "FlawMatch": {
              "ProcedureHash": "368628233",
              "PrototypeHash": "82092331",
              "FlawHash": "3103718343",
              "FlawHashCount": "1",
              "FlawHashOrdinal": "1",
              "CauseHash": "2323626286",
              "CauseHashCount": "1",
              "CauseHashOrdinal": "1",
              "CauseHash2": "438364638",
              "CauseHash2Ordinal": "1"
            },
            "FlawDetailsLink": "https://downloads.veracode.com/securityscan/cwe/v4/java/117.html"
          },
          {
            "Title": "console.log",
            "IssueId": "1003",
            "GOB": "B",
            "Severity": "3",
            "IssueTypeId": "taint",
            "IssueType": "Improper Output Neutralization for Logs",
            "CWEId": "117",
            "DisplayText": "\u003cspan\u003eThis call to console.log() could result in a log forging attack.  Writing untrusted data into a log file allows an attacker to forge log entries or inject malicious content into log files.  Corrupted log files can be used to cover an attacker\u0027s tracks or as a delivery mechanism for an attack on a log viewing or processing utility.  For example, if a web administrator uses a browser-based utility to review logs, a cross-site scripting attack might be possible. \u003c/span\u003e \u003cspan\u003eAvoid directly embedding user input in log files when possible.  Sanitize untrusted data used to construct log entries by using a safe logging mechanism such as the OWASP ESAPI Logger, which will automatically remove unexpected carriage returns and line feeds and can be configured to use HTML entity encoding for non-alphanumeric data.  Alternatively, some of the XSS escaping functions from the OWASP Java Encoder project will also sanitize CRLF sequences.  Only create a custom blocklist when absolutely necessary.  Always validate untrusted input to ensure that it conforms to the expected format, using centralized data validation routines when possible.\u003c/span\u003e \u003cspan\u003eReferences: \u003ca href\u003d\"https://cwe.mitre.org/data/definitions/117.html\"\u003eCWE\u003c/a\u003e \u003ca href\u003d\"https://www.owasp.org/index.php/Log_injection\"\u003eOWASP\u003c/a\u003e \u003ca href\u003d\"https://webappsec.pbworks.com/Improper-Output-Handling\"\u003eWASC\u003c/a\u003e \u003ca href\u003d\"https://help.veracode.com/reader/4EKhlLSMHm5jC8P8j3XccQ/IiF_rOE79ANbwnZwreSPGA\"\u003eSupported Cleansers\u003c/a\u003e\u003c/span\u003e",
            "Files": {
              "SourceFile": {
                "File": "cwe-73/test.js",
                "Line": "43",
                "FunctionName": "!func",
                "QualifiedFunctionName": "!main.!lambda4.!func",
                "FunctionPrototype": "!js_object !func(!js_object, !js_object, !js_object, ...)",
                "Scope": "^::!main::!lambda4"
              }
            },
            "FlawMatch": {
              "ProcedureHash": "368628233",
              "PrototypeHash": "82092331",
              "FlawHash": "1708290574",
              "FlawHashCount": "1",
              "FlawHashOrdinal": "1",
              "CauseHash": "4284885398",
              "CauseHashCount": "1",
              "CauseHashOrdinal": "1",
              "CauseHash2": "4013394447",
              "CauseHash2Ordinal": "1"
            },
            "FlawDetailsLink": "https://downloads.veracode.com/securityscan/cwe/v4/java/117.html"
          },
          {
            "Title": "express.Response.send",
            "IssueId": "1006",
            "GOB": "B",
            "Severity": "3",
            "IssueTypeId": "taint",
            "IssueType": "Improper Neutralization of Script-Related HTML Tags in a Web Page (Basic XSS)",
            "CWEId": "80",
            "DisplayText": "\u003cspan\u003eThis call to express.Response.send() contains a cross-site scripting (XSS) flaw.  The application populates the HTTP response with untrusted input, allowing an attacker to embed malicious content, such as Javascript code, which will be executed in the context of the victim\u0027s browser.  XSS vulnerabilities are commonly exploited to steal or manipulate cookies, modify presentation of content, and compromise confidential information, with new attack vectors being discovered on a regular basis. \u003c/span\u003e \u003cspan\u003eUse contextual escaping on all untrusted data before using it to construct any portion of an HTTP response.  The escaping method should be chosen based on the specific use case of the untrusted data, otherwise it may not protect fully against the attack. For example, if the data is being written to the body of an HTML page, use HTML entity escaping; if the data is being written to an attribute, use attribute escaping; etc.  Both the OWASP Java Encoder library and the Microsoft AntiXSS library provide contextual escaping methods. For more details on contextual escaping, see https://github.com/OWASP/CheatSheetSeries/blob/master/cheatsheets/Cross_Site_Scripting_Prevention_Cheat_Sheet.md. In addition, as a best practice, always validate untrusted input to ensure that it conforms to the expected format, using centralized data validation routines when possible.\u003c/span\u003e \u003cspan\u003eReferences: \u003ca href\u003d\"https://cwe.mitre.org/data/definitions/79.html\"\u003eCWE\u003c/a\u003e \u003ca href\u003d\"https://www.owasp.org/index.php/XSS\"\u003eOWASP\u003c/a\u003e \u003ca href\u003d\"https://webappsec.pbworks.com/Cross-Site-Scripting\"\u003eWASC\u003c/a\u003e \u003ca href\u003d\"https://help.veracode.com/reader/4EKhlLSMHm5jC8P8j3XccQ/IiF_rOE79ANbwnZwreSPGA\"\u003eSupported Cleansers\u003c/a\u003e\u003c/span\u003e",
            "Files": {
              "SourceFile": {
                "File": "cwe-73/test.js",
                "Line": "44",
                "FunctionName": "!func",
                "QualifiedFunctionName": "!main.!lambda4.!func",
                "FunctionPrototype": "!js_object !func(!js_object, !js_object, !js_object, ...)",
                "Scope": "^::!main::!lambda4"
              }
            },
            "FlawMatch": {
              "ProcedureHash": "368628233",
              "PrototypeHash": "82092331",
              "FlawHash": "797506991",
              "FlawHashCount": "1",
              "FlawHashOrdinal": "1",
              "CauseHash": "4248945493",
              "CauseHashCount": "1",
              "CauseHashOrdinal": "1",
              "CauseHash2": "4013394447",
              "CauseHash2Ordinal": "1"
            },
            "FlawDetailsLink": "https://downloads.veracode.com/securityscan/cwe/v4/java/80.html"
          },
          {
            "Title": "console.log",
            "IssueId": "1002",
            "GOB": "B",
            "Severity": "3",
            "IssueTypeId": "taint",
            "IssueType": "Improper Output Neutralization for Logs",
            "CWEId": "117",
            "DisplayText": "\u003cspan\u003eThis call to console.log() could result in a log forging attack.  Writing untrusted data into a log file allows an attacker to forge log entries or inject malicious content into log files.  Corrupted log files can be used to cover an attacker\u0027s tracks or as a delivery mechanism for an attack on a log viewing or processing utility.  For example, if a web administrator uses a browser-based utility to review logs, a cross-site scripting attack might be possible. \u003c/span\u003e \u003cspan\u003eAvoid directly embedding user input in log files when possible.  Sanitize untrusted data used to construct log entries by using a safe logging mechanism such as the OWASP ESAPI Logger, which will automatically remove unexpected carriage returns and line feeds and can be configured to use HTML entity encoding for non-alphanumeric data.  Alternatively, some of the XSS escaping functions from the OWASP Java Encoder project will also sanitize CRLF sequences.  Only create a custom blocklist when absolutely necessary.  Always validate untrusted input to ensure that it conforms to the expected format, using centralized data validation routines when possible.\u003c/span\u003e \u003cspan\u003eReferences: \u003ca href\u003d\"https://cwe.mitre.org/data/definitions/117.html\"\u003eCWE\u003c/a\u003e \u003ca href\u003d\"https://www.owasp.org/index.php/Log_injection\"\u003eOWASP\u003c/a\u003e \u003ca href\u003d\"https://webappsec.pbworks.com/Improper-Output-Handling\"\u003eWASC\u003c/a\u003e \u003ca href\u003d\"https://help.veracode.com/reader/4EKhlLSMHm5jC8P8j3XccQ/IiF_rOE79ANbwnZwreSPGA\"\u003eSupported Cleansers\u003c/a\u003e\u003c/span\u003e",
            "Files": {
              "SourceFile": {
                "File": "cwe-73/test.js",
                "Line": "48",
                "FunctionName": "!func",
                "QualifiedFunctionName": "!main.!lambda5.!func",
                "FunctionPrototype": "!js_object !func(!js_object, !js_object, !js_object, ...)",
                "Scope": "^::!main::!lambda5"
              }
            },
            "FlawMatch": {
              "ProcedureHash": "609705280",
              "PrototypeHash": "1255005486",
              "FlawHash": "1708290574",
              "FlawHashCount": "1",
              "FlawHashOrdinal": "1",
              "CauseHash": "4284885398",
              "CauseHashCount": "1",
              "CauseHashOrdinal": "1",
              "CauseHash2": "4013394447",
              "CauseHash2Ordinal": "1"
            },
            "FlawDetailsLink": "https://downloads.veracode.com/securityscan/cwe/v4/java/117.html"
          }
        ]
      }
    }
  },
  "pipeline_scan": "20.8.3-0"
}